   1 -15.75 0.36     1
   2  -0.06 0.35     2
   3  16.96 0.36     3
   4 -20.53 0.28     4
   5   0.27 0.27     5
   6  21.57 0.28     6
   7 -39.82 0.36     7
   8 -38.37 0.28     8
   9 -30.79 0.20     9
  10  -0.49 0.17    10
  11  30.44 0.20    11
  12  41.27 0.28    12
  13  43.08 0.35    13
  14 -60.28 0.49    14
  15 -62.58 0.40    15
  16 -62.21 0.32    16
  17 -64.58 0.22    17
  18 -55.20 0.13    18
  19  -2.00 0.08    19
  20  53.95 0.13    20
  21  65.70 0.20    21
  22  67.65 0.30    22
  23  68.51 0.39    23
  24  65.40 0.49    24
  25 -82.94 0.39    25
  26 -85.11 0.30    26
  27 -86.52 0.20    27
  28 -90.72 0.11    28
  29 -134.86 0.02    29
  30  95.31 0.11    30
  31  95.18 0.19    31
  32  91.01 0.28    32
  33  92.02 0.37    33
  34 -104.16 0.47    34
  35 -104.95 0.37    35
  36 -108.33 0.29    36
  37 -114.35 0.22    37
  38 -127.29 0.14    38
  39 -174.48 0.09    39
  40 136.11 0.13    40
  41 119.81 0.19    41
  42 115.42 0.28    42
  43 115.28 0.36    43
  44 113.09 0.45    44
  45 -127.35 0.46    45
  46 -127.69 0.36    46
  47 -130.10 0.29    47
  48 -147.87 0.21    48
  49 -175.87 0.19    49
  50 154.14 0.21    50
  51 135.49 0.28    51
  52 135.29 0.36    52
  53 136.85 0.44    53
  54 -151.93 0.30    54
  55 -176.29 0.28    55
  56 157.83 0.31    56
  57 -153.30 0.39    57
  58 -176.52 0.36    58
  59 161.32 0.38    59
  60 -177.85 0.45    60
